\relax 
\providecommand\hyper@newdestlabel[2]{}
\providecommand\HyperFirstAtBeginDocument{\AtBeginDocument}
\HyperFirstAtBeginDocument{\ifx\hyper@anchor\@undefined
\global\let\oldcontentsline\contentsline
\gdef\contentsline#1#2#3#4{\oldcontentsline{#1}{#2}{#3}}
\global\let\oldnewlabel\newlabel
\gdef\newlabel#1#2{\newlabelxx{#1}#2}
\gdef\newlabelxx#1#2#3#4#5#6{\oldnewlabel{#1}{{#2}{#3}}}
\AtEndDocument{\ifx\hyper@anchor\@undefined
\let\contentsline\oldcontentsline
\let\newlabel\oldnewlabel
\fi}
\fi}
\global\let\hyper@last\relax 
\gdef\HyperFirstAtBeginDocument#1{#1}
\providecommand\HyField@AuxAddToFields[1]{}
\providecommand\HyField@AuxAddToCoFields[2]{}
\bibstyle{abbrv}
\citation{Dunne2005}
\citation{Dunne2005}
\citation{Gradshteyn2007}
\@writefile{toc}{\contentsline {section}{\numberline {1}Introduction}{1}{section.1}}
\@writefile{toc}{\contentsline {section}{\numberline {2}QCD, QED, and NJL model}{1}{section.2}}
\@writefile{toc}{\contentsline {section}{\numberline {3}From QED lagragian to NJL lagragian **revisar bem}{1}{section.3}}
\newlabel{lagrangian}{{3}{1}{From QED lagragian to NJL lagragian **revisar bem}{section.3}{}}
\newlabel{density_lagrangian}{{1}{1}{From QED lagragian to NJL lagragian **revisar bem}{equation.3.1}{}}
\citation{ryder1996quantum}
\citation{springer_tracts_166}
\citation{Manoff:2002rf}
\citation{PhysRevD.19.2929,PhysRevD.55.2449}
\citation{PhysRevD.61.025005}
\citation{PhysRevD.61.025005}
\@writefile{toc}{\contentsline {section}{\numberline {4}Thermodynamical potential}{3}{section.4}}
\newlabel{thermodynamical_potential}{{4}{3}{Thermodynamical potential}{section.4}{}}
\newlabel{therm_pot}{{16}{3}{Thermodynamical potential}{equation.4.16}{}}
\newlabel{tp_1}{{16}{3}{Thermodynamical potential}{equation.4.16}{}}
\newlabel{tp_2}{{17}{3}{Thermodynamical potential}{equation.4.17}{}}
\newlabel{tp_3}{{18}{3}{Thermodynamical potential}{equation.4.18}{}}
\citation{PhysRevD.61.025005}
\@writefile{lof}{\contentsline {figure}{\numberline {1}{\ignorespaces Thermodynamical potential $\Omega $ \emph  {versus} effective mass $M$.\relax }}{4}{figure.caption.1}}
\providecommand*\caption@xref[2]{\@setref\relax\@undefined{#1}}
\newlabel{pot_therm}{{1}{4}{Thermodynamical potential $\Omega $ \emph {versus} effective mass $M$.\relax }{figure.caption.1}{}}
\@writefile{toc}{\contentsline {section}{\numberline {5}Gap equation}{4}{section.5}}
\newlabel{gap_equation}{{5}{4}{Gap equation}{section.5}{}}
\newlabel{gap_eq1}{{19}{4}{Gap equation}{equation.5.19}{}}
\newlabel{gap_eq2}{{20}{5}{Gap equation}{equation.5.20}{}}
\newlabel{gap_eq3}{{21}{5}{Gap equation}{equation.5.21}{}}
\@writefile{lof}{\contentsline {figure}{\numberline {2}{\ignorespaces Effective mass $M$ \emph  {versus} magnetic field.\relax }}{6}{figure.caption.2}}
\newlabel{gap_eq}{{2}{6}{Effective mass $M$ \emph {versus} magnetic field.\relax }{figure.caption.2}{}}
\@writefile{toc}{\contentsline {section}{\numberline {6}Magnetization}{6}{section.6}}
\newlabel{mg_1}{{23}{6}{Magnetization}{equation.6.23}{}}
\newlabel{mg_2}{{24}{7}{Magnetization}{equation.6.24}{}}
\@writefile{lof}{\contentsline {figure}{\numberline {3}{\ignorespaces Magnetization $M_1$ \emph  {versus} effective mass.\relax }}{7}{figure.caption.3}}
\newlabel{M1}{{3}{7}{Magnetization $M_1$ \emph {versus} effective mass.\relax }{figure.caption.3}{}}
\bibdata{references}
\bibcite{springer_tracts_166}{{1}{}{{}}{{}}}
\bibcite{PhysRevD.19.2929}{{2}{}{{}}{{}}}
\bibcite{Dunne2005}{{3}{}{{}}{{}}}
\bibcite{PhysRevD.61.025005}{{4}{}{{}}{{}}}
\bibcite{Gradshteyn2007}{{5}{}{{}}{{}}}
\bibcite{PhysRevD.55.2449}{{6}{}{{}}{{}}}
\bibcite{Manoff:2002rf}{{7}{}{{}}{{}}}
\bibcite{ryder1996quantum}{{8}{}{{}}{{}}}
\providecommand\NAT@force@numbers{}\NAT@force@numbers
\@writefile{lof}{\contentsline {figure}{\numberline {4}{\ignorespaces Magnetization $M_2$ \emph  {versus} effective mass.\relax }}{8}{figure.caption.4}}
\newlabel{M2}{{4}{8}{Magnetization $M_2$ \emph {versus} effective mass.\relax }{figure.caption.4}{}}
